/* XPM */
static char * close_pressed_xpm[] = {
"22 22 3 1",
" 	c #C14444",
".	c #FFFFFF",
"+	c #4682C8",
"                      ",
"                      ",
"                      ",
"                      ",
"                      ",
"       ..    ..       ",
"        ..  ..        ",
"         ....         ",
"          ..          ",
"         ....         ",
"        ..  ..        ",
"       ..    ..       ",
"                      ",
"                      ",
"                      ",
"                      ",
"                      ",
"++++++++++++++++++++++",
"++++++++++++++++++++++",
"++++++++++++++++++++++",
"++++++++++++++++++++++",
"++++++++++++++++++++++"};
