/* XPM */
static char * maximize_active_xpm[] = {
"22 22 3 1",
" 	c None",
".	c #4682C8",
"+	c #FFFFFF",
"......................",
"......................",
"......................",
"......................",
"......++++++++++......",
"......++++++++++......",
"......+........+......",
"......+........+......",
"......+........+......",
"......+........+......",
"......+........+......",
"......++++++++++......",
"......................",
"......................",
"......................",
"......................",
"......................",
"......................",
"......................",
"......................",
"......................",
"......................"};
